…
# output
combined_na_info
```

    ## # A tibble: 34 × 3
    ##    ColumnName   DataType Source
    ##    <chr>        <chr>    <chr> 
    ##  1 LotFrontage  numeric  both  
    ##  2 Alley        factor   both  
    ##  3 MasVnrType   factor   both  
    ##  4 MasVnrArea   numeric  both  
    ##  5 BsmtQual     factor   both  
    ##  6 BsmtCond     factor   both  
    ##  7 BsmtExposure factor   both  
    ##  8 BsmtFinType1 factor   both  
    ##  9 BsmtFinType2 factor   both  
    ## 10 Electrical   factor   train 
    ## # ℹ 24 more rows
…
